HDL_bit_wave.vcd
$date
	Tue Aug 15 17:53:20 2023
$end
$version
	Icarus Verilog
$end
$timescale
	1ps
$end
$scope module tb_width_8to12 $end
$var wire 1 ! valid_out $end
$var wire 12 " data_out [11:0] $end
$var parameter 32 # PERIOD $end
$var reg 1 $ clk $end
$var reg 8 % data_in [7:0] $end
$var reg 1 & rst_n $end
$var reg 1 ' valid_in $end
$scope module u_width_8to12 $end
$var wire 1 $ clk $end
$var wire 8 ( data_in [7:0] $end
$var wire 1 & rst_n $end
$var wire 1 ' valid_in $end
$var reg 12 ) data_out [11:0] $end
$var reg 12 * data_out_reg [11:0] $end
$var reg 2 + next_state [1:0] $end
$var reg 2 , state [1:0] $end
$var reg 1 ! valid_out $end
$upscope $end
$upscope $end
$enddefinitions $end
$comment Show the parameter values. $end
$dumpall
b1010 #
$end
#0
$dumpvars
b0 ,
b0 +
b0 *
b0 )
b0 (
0'
0&
b0 %
1$
b0 "
0!
$end
#5000
0$
#10000
1$
#15000
0$
#20000
1$
1&
#25000
0$
#30000
1$
#30001
b1 +
b10001 %
b10001 (
1'
#35000
0$
#40000
b10 +
b1 ,
b10001 *
1$
#40001
b100010 %
b100010 (
#45000
0$
#50000
b11 +
1!
b100010010 "
b100010010 )
b100100010 *
b10 ,
1$
#50001
b10 +
b110011 %
b110011 (
0'
#55000
0$
#60000
0!
1$
#60001
b11 +
b1000100 %
b1000100 (
1'
#65000
0$
#70000
b1 +
1!
b1001000100 "
b1001000100 )
b1001000100 *
b11 ,
1$
#70001
b1010101 %
b1010101 (
#75000
0$
#80000
b10 +
b1 ,
b10001010101 *
0!
1$
#80001
b1100110 %
b1100110 (
#85000
0$
#90000
b11 +
1!
b10101010110 "
b10101010110 )
b10101100110 *
b10 ,
1$
#90001
b1110111 %
b1110111 (
#95000
0$
#100000
b1 +
b11 ,
b11001110111 *
b11001110111 "
b11001110111 )
1$
#100001
b10001000 %
b10001000 (
#105000
0$
#110000
b10 +
0!
b11110001000 *
b1 ,
1$
#110001
b10011001 %
b10011001 (
#115000
0$
#120000
b11 +
b10 ,
b100010011001 *
1!
b100010001001 "
b100010001001 )
1$
#120001
b10101010 %
b10101010 (
#125000
0$
#130000
b1 +
b100110101010 "
b100110101010 )
b100110101010 *
b11 ,
1$
#130001
b10111011 %
b10111011 (
#135000
0$
#140000
b10 +
b1 ,
b101010111011 *
0!
1$
#140001
b11001100 %
b11001100 (
#145000
0$
#150000
b11 +
1!
b101110111100 "
b101110111100 )
b101111001100 *
b10 ,
1$
#155000
0$
#160000
b1 +
b11 ,
b110011001100 *
b110011001100 "
b110011001100 )
1$
#165000
0$
#170000
b10 +
0!
b1 ,
1$
#175000
0$
#180000
b11 +
b10 ,
1!
1$
