HDL_bit_wave.vcd
$date
	Wed Aug 16 16:39:36 2023
$end
$version
	Icarus Verilog
$end
$timescale
	1ps
$end
$scope module tb_seller1 $end
$var wire 2 ! out2 [1:0] $end
$var wire 1 " out1 $end
$var parameter 32 # PERIOD $end
$var reg 1 $ clk $end
$var reg 1 % d1 $end
$var reg 1 & d2 $end
$var reg 1 ' d3 $end
$var reg 1 ( rst $end
$scope module u_seller1 $end
$var wire 1 $ clk $end
$var wire 1 % d1 $end
$var wire 1 & d2 $end
$var wire 1 ' d3 $end
$var wire 1 ( rst $end
$var wire 3 ) d [2:0] $end
$var reg 3 * next_state [2:0] $end
$var reg 1 " out1 $end
$var reg 2 + out2 [1:0] $end
$var reg 3 , state [2:0] $end
$upscope $end
$upscope $end
$enddefinitions $end
$comment Show the parameter values. $end
$dumpall
b1010 #
$end
#0
$dumpvars
b0 ,
b0 +
b0 *
b0 )
0(
0'
0&
0%
0$
0"
b0 !
$end
#5000
1$
#10000
0$
1(
#15000
1$
#20000
0$
#25000
1$
#30000
0$
#35000
b1 *
b1 )
1%
1$
#40000
b1 ,
b1 *
b0 )
0%
0$
#45000
1$
#50000
0$
#55000
1$
#60000
0$
#65000
1$
#70000
0$
#75000
1$
#80000
0$
#85000
1$
#90000
0$
#95000
b11 *
b10 )
1&
1$
#100000
b11 ,
b0 *
b0 )
0&
0$
#105000
1"
1$
#110000
b0 ,
0$
#115000
0"
1$
#120000
0$
#125000
1$
#130000
0$
#135000
b1 *
b1 )
1%
1$
#140000
b1 ,
b1 *
b0 )
0%
0$
#145000
1$
#150000
0$
#155000
1$
#160000
0$
#165000
1$
#170000
0$
#175000
1$
#180000
0$
#185000
1$
#190000
0$
#195000
1$
#200000
0$
#205000
b10 *
b1 )
1%
1$
#210000
b10 ,
b10 *
b0 )
0%
0$
#215000
1$
#220000
0$
#225000
1$
#230000
0$
#235000
1$
#240000
0$
#245000
1$
#250000
0$
#255000
1$
#260000
0$
#265000
b110 *
b100 )
1'
1$
#270000
b110 ,
b0 *
b0 )
0'
0$
#275000
b11 !
b11 +
1"
1$
#280000
b0 ,
0$
#285000
b0 !
b0 +
0"
1$
#290000
0$
#295000
1$
#300000
0$
#305000
1$
#310000
0$
#315000
1$
#320000
0$
#325000
b100 *
b100 )
1'
1$
#330000
b100 ,
b0 *
b0 )
0'
0$
#335000
b1 !
b1 +
1"
1$
#340000
b0 ,
0$
#345000
b0 !
b0 +
0"
1$
#350000
0$
#355000
1$
#360000
0$
#365000
b1 *
b1 )
1%
1$
#370000
b1 ,
b1 *
b0 )
0%
0$
#375000
1$
#380000
0$
#385000
1$
#390000
0$
#395000
1$
#400000
0$
#405000
1$
#410000
0$
#415000
1$
#420000
0$
#425000
1$
#430000
0$
#435000
b101 *
b100 )
1'
1$
#440000
b101 ,
b0 *
b0 )
0'
0$
#445000
b10 !
b10 +
1"
1$
#450000
b0 ,
0$
#455000
b0 !
b0 +
0"
1$
#460000
0$
#465000
1$
#470000
0$
#475000
1$
#480000
0$
#485000
1$
#490000
0$
#495000
b10 *
b10 )
1&
1$
#500000
b10 ,
b10 *
b0 )
0&
0$
#505000
1$
#510000
0$
#515000
b100 *
b10 )
1&
1$
#520000
b100 ,
b0 *
b0 )
0&
0$
#525000
b1 !
b1 +
1"
1$
#530000
b0 ,
0$
#535000
b0 !
b0 +
0"
1$
