HDL_bit_wave.vcd
$date
	Mon Jul 24 11:18:50 2023
$end
$version
	Icarus Verilog
$end
$timescale
	1ns
$end
$scope module tb_multi_sel $end
$var wire 11 ! out [10:0] $end
$var wire 1 " input_grant $end
$var parameter 32 # PERIOD $end
$var reg 1 $ clk $end
$var reg 8 % d [7:0] $end
$var reg 1 & rst $end
$scope module u_multi_sel $end
$var wire 1 $ clk $end
$var wire 8 ' d [7:0] $end
$var wire 1 & rst $end
$var reg 1 " input_grant $end
$var reg 2 ( next_state [1:0] $end
$var reg 11 ) out [10:0] $end
$var reg 11 * out_temp [10:0] $end
$var reg 2 + state [1:0] $end
$upscope $end
$upscope $end
$enddefinitions $end
$comment Show the parameter values. $end
$dumpall
b1010 #
$end
#0
$dumpvars
b0 +
b0 *
b0 )
b1 (
b0 '
0&
b0 %
0$
0"
b0 !
$end
#5
1$
#10
0$
b1 %
b1 '
#15
1$
#20
0$
#25
1$
#30
0$
1&
#35
b1 !
b1 )
1"
b10 (
b1 *
b1 +
1$
#40
0$
#45
b11 !
b11 )
0"
b11 (
b10 +
1$
#50
0$
#55
b111 !
b111 )
b0 (
b11 +
1$
#60
0$
#65
b1000 !
b1000 )
b1 (
b0 +
1$
#70
0$
#75
b1 !
b1 )
1"
b10 (
b1 +
1$
#80
0$
#85
b11 !
b11 )
0"
b11 (
b10 +
1$
#90
0$
#95
b111 !
b111 )
b0 (
b11 +
1$
#100
0$
#105
b1000 !
b1000 )
b1 (
b0 +
1$
#110
0$
b101 %
b101 '
#115
b101 !
b101 )
1"
b10 (
b101 *
b1 +
1$
#120
0$
#125
b1111 !
b1111 )
0"
b11 (
b10 +
1$
#130
0$
#135
b100011 !
b100011 )
b0 (
b11 +
1$
#140
0$
#145
b101000 !
b101000 )
b1 (
b0 +
1$
#150
0$
#155
b101 !
b101 )
1"
b10 (
b1 +
1$
#160
0$
#165
b1111 !
b1111 )
0"
b11 (
b10 +
1$
#170
0$
#175
b100011 !
b100011 )
b0 (
b11 +
1$
#180
0$
#185
b101000 !
b101000 )
b1 (
b0 +
1$
#190
0$
#195
b101 !
b101 )
1"
b10 (
b1 +
1$
#200
0$
#205
b1111 !
b1111 )
0"
b11 (
b10 +
1$
#210
0$
b10 %
b10 '
#215
b100011 !
b100011 )
b0 (
b11 +
1$
#220
0$
#225
b101000 !
b101000 )
b1 (
b0 +
1$
#230
0$
#235
b10 !
b10 )
1"
b10 (
b10 *
b1 +
1$
#240
0$
#245
b110 !
b110 )
0"
b11 (
b10 +
1$
#250
0$
#255
b1110 !
b1110 )
b0 (
b11 +
1$
#260
0$
#265
b10000 !
b10000 )
b1 (
b0 +
1$
#270
0$
#275
b10 !
b10 )
1"
b10 (
b1 +
1$
#280
0$
b11 %
b11 '
#285
b110 !
b110 )
0"
b11 (
b10 +
1$
#290
0$
#295
b1110 !
b1110 )
b0 (
b11 +
1$
#300
0$
#305
b10000 !
b10000 )
b1 (
b0 +
1$
#310
0$
#315
b11 !
b11 )
1"
b10 (
b11 *
b1 +
1$
#320
0$
#325
b1001 !
b1001 )
0"
b11 (
b10 +
1$
#330
0$
#335
b10101 !
b10101 )
b0 (
b11 +
1$
#340
0$
#345
b11000 !
b11000 )
b1 (
b0 +
1$
#350
0$
#355
b11 !
b11 )
1"
b10 (
b1 +
1$
#360
0$
#365
b1001 !
b1001 )
0"
b11 (
b10 +
1$
#370
0$
#375
b10101 !
b10101 )
b0 (
b11 +
1$
#380
0$
#385
b11000 !
b11000 )
b1 (
b0 +
1$
#390
0$
#395
b11 !
b11 )
1"
b10 (
b1 +
1$
#400
0$
#405
b1001 !
b1001 )
0"
b11 (
b10 +
1$
#410
0$
#415
b10101 !
b10101 )
b0 (
b11 +
1$
#420
0$
#425
b11000 !
b11000 )
b1 (
b0 +
1$
#430
0$
#435
b11 !
b11 )
1"
b10 (
b1 +
1$
#440
0$
#445
b1001 !
b1001 )
0"
b11 (
b10 +
1$
#450
0$
#455
b10101 !
b10101 )
b0 (
b11 +
1$
#460
0$
#465
b11000 !
b11000 )
b1 (
b0 +
1$
#470
0$
#475
b11 !
b11 )
1"
b10 (
b1 +
1$
