HDL_bit_wave.vcd
$date
	Tue Jul 23 18:15:01 2024
$end
$version
	Icarus Verilog
$end
$timescale
	1ps
$end
$scope module pul_sync_wrapper_tb $end
$var wire 1 ! d_sync_pos $end
$var wire 1 " d_sync_neg $end
$var parameter 32 # CLKa_FREQ $end
$var parameter 32 $ CLKb_FREQ $end
$var reg 1 % clk_des $end
$var reg 1 & clk_src $end
$var reg 1 ' d_in $end
$var reg 1 ( rst_b $end
$scope module u_pul_sync_wrapper $end
$var wire 1 % clk_des $end
$var wire 1 & clk_src $end
$var wire 1 ' d_in $end
$var wire 1 " d_sync_neg $end
$var wire 1 ! d_sync_pos $end
$var wire 1 ( rst_b $end
$var wire 1 ) d_src_sync $end
$var wire 1 * d_des_sync $end
$var reg 1 + d_des_sync_dly $end
$var reg 2 , d_in_clk_cross_des [1:0] $end
$var reg 2 - d_in_clk_cross_src [1:0] $end
$var reg 1 . d_in_lev $end
$upscope $end
$upscope $end
$enddefinitions $end
$comment Show the parameter values. $end
$dumpall
b1010000 $
b1100100 #
$end
#0
$dumpvars
x.
bx -
bx ,
x+
x*
x)
x(
0'
x&
x%
x"
x!
$end
#2
0!
0)
0*
0"
0.
b0 -
b0 ,
0+
0%
0&
0(
#5
1&
#6
1%
#10
0&
#12
0%
1(
#15
1&
#18
1%
#20
0&
#24
0%
#25
1&
#30
0&
1%
#35
1&
#36
0%
#40
0&
1'
#42
1%
#45
1.
1&
#48
0%
#50
0&
0'
#54
b1 ,
1%
#55
1&
#60
0&
0%
#65
1&
#66
1*
b11 ,
1%
#70
0&
#72
0%
#75
1&
#78
1"
1+
1%
#80
0&
#84
0%
#85
b1 -
1&
#90
0&
1%
#95
0"
1)
b11 -
1&
#96
0%
#100
0&
#102
1%
#105
0.
1&
#108
0%
#110
0&
#114
b10 ,
1%
#115
1&
#120
0&
0%
#125
1&
#126
0*
b0 ,
1%
#130
0&
#132
0%
#135
1&
#138
1!
0+
1%
#140
0&
#144
0%
#145
b10 -
1&
#150
0&
1%
#155
0!
0)
b0 -
1&
