HDL_bit_wave.vcd
$date
	Tue Jul 23 19:09:16 2024
$end
$version
	Icarus Verilog
$end
$timescale
	1ps
$end
$scope module pul_sync_wrapper_tb $end
$var wire 1 ! d_sync_pos $end
$var wire 1 " d_sync_neg $end
$var parameter 32 # CLKa_FREQ $end
$var parameter 32 $ CLKb_FREQ $end
$var reg 1 % clk_des $end
$var reg 1 & clk_src $end
$var reg 1 ' d_in $end
$var reg 1 ( rst_b $end
$scope module u_pul_sync_wrapper $end
$var wire 1 % clk_des $end
$var wire 1 & clk_src $end
$var wire 1 ' d_in $end
$var wire 1 " d_sync_neg $end
$var wire 1 ! d_sync_pos $end
$var wire 1 ( rst_b $end
$var wire 1 ) d_src_sync $end
$var wire 1 * d_des_sync $end
$var reg 1 + d_des_sync_dly $end
$var reg 2 , d_in_clk_cross_des [1:0] $end
$var reg 2 - d_in_clk_cross_src [1:0] $end
$var reg 1 . d_in_lev $end
$upscope $end
$upscope $end
$enddefinitions $end
$comment Show the parameter values. $end
$dumpall
b10100 $
b1100100 #
$end
#0
$dumpvars
x.
bx -
bx ,
x+
x*
x)
x(
0'
x&
x%
x"
x!
$end
#2
0!
0)
0*
0"
0.
b0 -
b0 ,
0+
0%
0&
0(
#5
1&
#10
0&
#12
1(
#15
1&
#20
0&
#25
1&
1%
#30
0&
#35
1'
1&
#40
0&
#45
1.
0'
1&
#50
0&
0%
#55
1&
#60
0&
#65
1&
#70
0&
#75
b1 ,
1&
1%
#80
0&
#85
1&
#90
0&
#95
1&
#100
0&
0%
#105
1&
#110
0&
#115
1&
#120
0&
#125
1*
b11 ,
1&
1%
#130
0&
#135
1&
#140
0&
#145
1&
#150
0&
0%
#155
1&
#160
0&
#165
1&
#170
0&
#175
1"
1+
1&
1%
#180
0&
#185
b1 -
1&
#190
0&
#195
0"
1)
b11 -
1&
#200
0&
0%
#205
0.
1&
#210
0&
#215
1&
#220
0&
#225
b10 ,
1&
1%
#230
0&
#235
1&
#240
0&
#245
1&
#250
0&
0%
#255
1&
#260
0&
#265
1&
#270
0&
#275
0*
b0 ,
1&
1%
#280
0&
#285
1&
#290
0&
#295
1&
#300
0&
0%
#305
1&
#310
0&
#315
1&
#320
0&
#325
1!
0+
1&
1%
#330
0&
#335
b10 -
1&
#340
0&
#345
0!
0)
b0 -
1&
